[
    {
        "fullname": "Jeremy Clarkson",
        "registrationDate": "2020-10-10",
        "deposit": {
            "isPaid": true,
            "amount": 500
        },
        "group": "Campus",
        "classes": [
            "manual",
            "automation",
            "api"
        ],
        "id": 0
    },
    {
        "fullname": "Richard Hammond",
        "registrationDate": "2020-10-01",
        "deposit": {
            "isPaid": true,
            "amount": 1000
        },
        "classes": [
            "manual",
            "automation"
        ],
        "id": 1
    },
    {
        "fullname": "James May",
        "registrationDate": "2020-09-25",
        "deposit": {
            "isPaid": false
        },
        "group": "Online",
        "classes": [
            "manual",
            "automation"
        ],
        "id": 3
    }
]